
{
    "title":"helloworld",
    "slides":[
        {
            "image_file_name":"ArchesUtah.jpg",
            "image_path":"/Users/weichaozhao/Downloads/SlideshowMaker/sites/Homework/img/",
            "caption":"j"
        }
    ]
}