
{
    "title":"ENTER TITLE",
    "slides":[
        {
            "image_file_name":"BadlandsSouthDakota.jpg",
            "image_path":"/Users/weichaozhao/Downloads/SlideshowMaker/images/slide_show_images/",
            "caption":"ENTER CAPTION"
        },
        {
            "image_file_name":"QuirponIslandNewfoundland.jpg",
            "image_path":"/Users/weichaozhao/Downloads/SlideshowMaker/images/slide_show_images/",
            "caption":"ENTER CAPTION"
        }
    ]
}